AnniversaryDate,DueDate,PaymentDate,PaymentId,OpeningBalance,PaymentAmount,Interest,Principal,EndingBalance,Status,Type,PaymentMethod
,2015-01-19,2015-01-19,pmt001,9999.99,210.01,0.00,210.01,9789.98,Completed,Additional,ACH
2015-01-31,2015-01-31,,,9789.98,341.77,115.76,226.01,9563.97,Scheduled,Scheduled,ACH
,2015-02-11,2015-02-11,pmt002,9563.97,99.09,0.00,99.09,9464.88,Scheduled,Additional,ACH
2015-02-28,2015-02-28,,,9464.88,341.77,103.48,238.29,9226.59,Scheduled,Scheduled,ACH
,2015-03-13,2015-03-13,pmt003,9226.59,101.01,0.00,101.01,9125.58,Scheduled,Additional,ACH
2015-03-31,2015-03-31,,,9125.58,341.77,107.05,234.72,8890.86,Scheduled,Scheduled,ACH
2015-04-30,2015-04-30,,,8890.86,341.77,103.72,238.05,8652.81,Scheduled,Scheduled,ACH
2015-05-31,2015-05-31,,,8652.81,341.77,100.94,240.83,8411.98,Scheduled,Scheduled,ACH
2015-06-30,2015-06-30,,,8411.98,341.77,98.13,243.64,8168.34,Scheduled,Scheduled,ACH
2015-07-31,2015-07-31,,,8168.34,341.77,95.29,246.48,7921.86,Scheduled,Scheduled,ACH
2015-08-31,2015-08-31,,,7921.86,341.77,92.42,249.35,7672.51,Scheduled,Scheduled,ACH
2015-09-30,2015-09-30,,,7672.51,341.77,89.51,252.26,7420.25,Scheduled,Scheduled,ACH
2015-10-31,2015-10-31,,,7420.25,341.77,86.56,255.21,7165.04,Scheduled,Scheduled,ACH
2015-11-30,2015-11-30,,,7165.04,341.77,83.59,258.18,6906.86,Scheduled,Scheduled,ACH
2015-12-31,2015-12-31,,,6906.86,341.77,80.57,261.20,6645.66,Scheduled,Scheduled,ACH
2016-01-31,2016-01-31,,,6645.66,341.77,77.53,264.24,6381.42,Scheduled,Scheduled,ACH
2016-02-29,2016-02-29,,,6381.42,341.77,74.44,267.33,6114.09,Scheduled,Scheduled,ACH
2016-03-31,2016-03-31,,,6114.09,341.77,71.33,270.44,5843.65,Scheduled,Scheduled,ACH
2016-04-30,2016-04-30,,,5843.65,341.77,68.17,273.60,5570.05,Scheduled,Scheduled,ACH
2016-05-31,2016-05-31,,,5570.05,341.77,64.98,276.79,5293.26,Scheduled,Scheduled,ACH
2016-06-30,2016-06-30,,,5293.26,341.77,61.75,280.02,5013.24,Scheduled,Scheduled,ACH
2016-07-31,2016-07-31,,,5013.24,341.77,58.48,283.29,4729.95,Scheduled,Scheduled,ACH
2016-08-31,2016-08-31,,,4729.95,341.77,55.18,286.59,4443.36,Scheduled,Scheduled,ACH
2016-09-30,2016-09-30,,,4443.36,341.77,51.84,289.93,4153.43,Scheduled,Scheduled,ACH
2016-10-31,2016-10-31,,,4153.43,341.77,48.45,293.32,3860.11,Scheduled,Scheduled,ACH
2016-11-30,2016-11-30,,,3860.11,341.77,45.03,296.74,3563.37,Scheduled,Scheduled,ACH
2016-12-31,2016-12-31,,,3563.37,341.77,41.57,300.20,3263.17,Scheduled,Scheduled,ACH
2017-01-31,2017-01-31,,,3263.17,341.77,38.07,303.70,2959.47,Scheduled,Scheduled,ACH
2017-02-28,2017-02-28,,,2959.47,341.77,34.52,307.25,2652.22,Scheduled,Scheduled,ACH
2017-03-31,2017-03-31,,,2652.22,341.77,30.94,310.83,2341.39,Scheduled,Scheduled,ACH
2017-04-30,2017-04-30,,,2341.39,341.77,27.31,314.46,2026.93,Scheduled,Scheduled,ACH
2017-05-31,2017-05-31,,,2026.93,341.77,23.65,318.12,1708.81,Scheduled,Scheduled,ACH
2017-06-30,2017-06-30,,,1708.81,341.77,19.93,321.84,1386.97,Scheduled,Scheduled,ACH
2017-07-31,2017-07-31,,,1386.97,341.77,16.18,325.59,1061.38,Scheduled,Scheduled,ACH
2017-08-31,2017-08-31,,,1061.38,341.77,12.38,329.39,731.99,Scheduled,Scheduled,ACH
2017-09-30,2017-09-30,,,731.99,341.77,8.54,333.23,398.76,Scheduled,Scheduled,ACH
2017-10-31,2017-10-31,,,398.76,341.77,4.65,337.12,61.64,Scheduled,Scheduled,ACH
2017-11-30,2017-11-30,,,61.64,62.36,0.72,61.64,0.00,Scheduled,Scheduled,ACH
