AnniversaryDate,DueDate,PaymentDate,PaymentId,OpeningBalance,PaymentAmount,Interest,Principal,EndingBalance,Status,Type,PaymentMethod
2015-01-15,2015-01-15,2015-01-15,pmt001,25000.00,2312.43,410.69,1901.74,23098.26,Completed,Scheduled,Check
,2015-01-26,2015-01-26,pmt002,23098.26,500.00,0.00,500.00,22598.26,Completed,Additional,Check
2015-02-15,2015-02-16,,,22598.26,2312.43,374.24,1938.19,20660.07,Scheduled,Scheduled,Check
2015-03-15,2015-03-16,,,20660.07,2312.43,339.39,1973.04,18687.03,Scheduled,Scheduled,Check
2015-04-15,2015-04-15,,,18687.03,2312.43,306.98,2005.45,16681.58,Scheduled,Scheduled,Check
2015-05-15,2015-05-15,,,16681.58,2312.43,274.04,2038.39,14643.19,Scheduled,Scheduled,Check
2015-06-15,2015-06-15,,,14643.19,2312.43,240.55,2071.88,12571.31,Scheduled,Scheduled,Check
2015-07-15,2015-07-15,,,12571.31,2312.43,206.52,2105.91,10465.40,Scheduled,Scheduled,Check
2015-08-15,2015-08-17,,,10465.40,2312.43,171.92,2140.51,8324.89,Scheduled,Scheduled,Check
2015-09-15,2015-09-15,,,8324.89,2312.43,136.76,2175.67,6149.22,Scheduled,Scheduled,Check
2015-10-15,2015-10-15,,,6149.22,2312.43,101.02,2211.41,3937.81,Scheduled,Scheduled,Check
2015-11-15,2015-11-16,,,3937.81,2312.43,64.69,2247.74,1690.07,Scheduled,Scheduled,Check
2015-12-15,2015-12-15,,,1690.07,1717.83,27.76,1690.07,0.00,Scheduled,Scheduled,Check
