AnniversaryDate,DueDate,PaymentDate,PaymentId,OpeningBalance,PaymentAmount,Interest,Principal,EndingBalance,Status,Type,PaymentMethod
2015-01-15,2015-01-15,,,25000.00,2312.43,410.69,1901.74,23098.26,Scheduled,Scheduled,Check
2015-02-15,2015-02-16,,,23098.26,2312.43,379.45,1932.98,21165.28,Scheduled,Scheduled,Check
2015-03-15,2015-03-16,,,21165.28,2312.43,347.69,1964.74,19200.54,Scheduled,Scheduled,Check
2015-04-15,2015-04-15,,,19200.54,2312.43,315.42,1997.01,17203.53,Scheduled,Scheduled,Check
2015-05-15,2015-05-15,,,17203.53,2312.43,282.61,2029.82,15173.71,Scheduled,Scheduled,Check
2015-06-15,2015-06-15,,,15173.71,2312.43,249.27,2063.16,13110.55,Scheduled,Scheduled,Check
2015-07-15,2015-07-15,,,13110.55,2312.43,215.37,2097.06,11013.49,Scheduled,Scheduled,Check
2015-08-15,2015-08-17,,,11013.49,2312.43,180.92,2131.51,8881.98,Scheduled,Scheduled,Check
2015-09-15,2015-09-15,,,8881.98,2312.43,145.91,2166.52,6715.46,Scheduled,Scheduled,Check
2015-10-15,2015-10-15,,,6715.46,2312.43,110.32,2202.11,4513.35,Scheduled,Scheduled,Check
2015-11-15,2015-11-16,,,4513.35,2312.43,74.14,2238.29,2275.06,Scheduled,Scheduled,Check
2015-12-15,2015-12-15,,,2275.06,2312.43,37.37,2275.06,0.00,Scheduled,Scheduled,Check
