AnniversaryDate,DueDate,PaymentDate,PaymentId,OpeningBalance,PaymentAmount,Interest,Principal,EndingBalance,Status,Type,PaymentMethod
2015-01-15,2015-01-15,2015-01-15,pmt001,25000.00,2312.43,410.69,1901.74,23098.26,Completed,Scheduled,Check
,2015-01-26,2015-01-26,pmt002,23098.26,500.00,0.00,500.00,22598.26,Completed,Additional,Check
2015-02-15,2015-02-16,2015-02-10,pmt003,22598.26,2312.43,312.37,2000.06,20598.20,Scheduled,Scheduled,Check
2015-03-15,2015-03-16,,,20598.20,2312.43,394.78,1917.65,18680.55,Scheduled,Scheduled,Check
2015-04-15,2015-04-15,,,18680.55,2312.43,306.87,2005.56,16674.99,Scheduled,Scheduled,Check
2015-05-15,2015-05-15,,,16674.99,2312.43,273.93,2038.50,14636.49,Scheduled,Scheduled,Check
2015-06-15,2015-06-15,,,14636.49,2312.43,240.44,2071.99,12564.50,Scheduled,Scheduled,Check
2015-07-15,2015-07-15,,,12564.50,2312.43,206.40,2106.03,10458.47,Scheduled,Scheduled,Check
2015-08-15,2015-08-17,,,10458.47,2312.43,171.81,2140.62,8317.85,Scheduled,Scheduled,Check
2015-09-15,2015-09-15,,,8317.85,2312.43,136.64,2175.79,6142.06,Scheduled,Scheduled,Check
2015-10-15,2015-10-15,,,6142.06,2312.43,100.90,2211.53,3930.53,Scheduled,Scheduled,Check
2015-11-15,2015-11-16,,,3930.53,2312.43,64.57,2247.86,1682.67,Scheduled,Scheduled,Check
2015-12-15,2015-12-15,,,1682.67,1710.31,27.64,1682.67,0.00,Scheduled,Scheduled,Check