AnniversaryDate,DueDate,PaymentDate,PaymentId,OpeningBalance,PaymentAmount,Interest,Principal,EndingBalance,Status,Type,PaymentMethod
,2015-01-19,2015-01-19,pmt001,9999.99,210.01,0.00,210.01,9789.98,Completed,Additional,ACH
2015-01-31,2015-01-31,,,9789.98,341.77,115.76,226.01,9563.97,Scheduled,Scheduled,ACH
,2015-02-11,2015-02-11,pmt002,9563.97,99.09,0.00,99.09,9464.88,Scheduled,Additional,ACH
2015-02-28,2015-02-28,,,9464.88,341.77,103.48,238.29,9226.59,Scheduled,Scheduled,ACH
,2015-03-13,2015-03-13,pmt003,9226.59,101.01,0.00,101.01,9125.58,Scheduled,Additional,ACH
2015-03-31,2015-03-31,,,9125.58,341.77,107.05,234.72,8890.86,Scheduled,Scheduled,ACH
,2015-04-10,2015-04-10,pmt005,8890.86,63.03,0.00,63.03,8827.83,Scheduled,Additional,ACH
,2015-04-20,2015-04-20,pmt004,8827.83,52.02,0.00,52.02,8775.81,Scheduled,Additional,ACH
2015-04-30,2015-04-30,,,8775.81,341.77,103.03,238.74,8537.07,Scheduled,Scheduled,ACH
2015-05-31,2015-05-31,,,8537.07,341.77,99.59,242.18,8294.89,Scheduled,Scheduled,ACH
2015-06-30,2015-06-30,,,8294.89,341.77,96.77,245.00,8049.89,Scheduled,Scheduled,ACH
2015-07-31,2015-07-31,,,8049.89,341.77,93.91,247.86,7802.03,Scheduled,Scheduled,ACH
2015-08-31,2015-08-31,,,7802.03,341.77,91.02,250.75,7551.28,Scheduled,Scheduled,ACH
2015-09-30,2015-09-30,,,7551.28,341.77,88.09,253.68,7297.60,Scheduled,Scheduled,ACH
2015-10-31,2015-10-31,,,7297.60,341.77,85.13,256.64,7040.96,Scheduled,Scheduled,ACH
2015-11-30,2015-11-30,,,7040.96,341.77,82.14,259.63,6781.33,Scheduled,Scheduled,ACH
2015-12-31,2015-12-31,,,6781.33,341.77,79.11,262.66,6518.67,Scheduled,Scheduled,ACH
2016-01-31,2016-01-31,,,6518.67,341.77,76.05,265.72,6252.95,Scheduled,Scheduled,ACH
2016-02-29,2016-02-29,,,6252.95,341.77,72.95,268.82,5984.13,Scheduled,Scheduled,ACH
2016-03-31,2016-03-31,,,5984.13,341.77,69.81,271.96,5712.17,Scheduled,Scheduled,ACH
2016-04-30,2016-04-30,,,5712.17,341.77,66.64,275.13,5437.04,Scheduled,Scheduled,ACH
2016-05-31,2016-05-31,,,5437.04,341.77,63.43,278.34,5158.70,Scheduled,Scheduled,ACH
2016-06-30,2016-06-30,,,5158.70,341.77,60.18,281.59,4877.11,Scheduled,Scheduled,ACH
2016-07-31,2016-07-31,,,4877.11,341.77,56.90,284.87,4592.24,Scheduled,Scheduled,ACH
2016-08-31,2016-08-31,,,4592.24,341.77,53.57,288.20,4304.04,Scheduled,Scheduled,ACH
2016-09-30,2016-09-30,,,4304.04,341.77,50.21,291.56,4012.48,Scheduled,Scheduled,ACH
2016-10-31,2016-10-31,,,4012.48,341.77,46.81,294.96,3717.52,Scheduled,Scheduled,ACH
2016-11-30,2016-11-30,,,3717.52,341.77,43.37,298.40,3419.12,Scheduled,Scheduled,ACH
2016-12-31,2016-12-31,,,3419.12,341.77,39.89,301.88,3117.24,Scheduled,Scheduled,ACH
2017-01-31,2017-01-31,,,3117.24,341.77,36.37,305.40,2811.84,Scheduled,Scheduled,ACH
2017-02-28,2017-02-28,,,2811.84,341.77,32.80,308.97,2502.87,Scheduled,Scheduled,ACH
2017-03-31,2017-03-31,,,2502.87,341.77,29.20,312.57,2190.30,Scheduled,Scheduled,ACH
2017-04-30,2017-04-30,,,2190.30,341.77,25.55,316.22,1874.08,Scheduled,Scheduled,ACH
2017-05-31,2017-05-31,,,1874.08,341.77,21.86,319.91,1554.17,Scheduled,Scheduled,ACH
2017-06-30,2017-06-30,,,1554.17,341.77,18.13,323.64,1230.53,Scheduled,Scheduled,ACH
2017-07-31,2017-07-31,,,1230.53,341.77,14.36,327.41,903.12,Scheduled,Scheduled,ACH
2017-08-31,2017-08-31,,,903.12,341.77,10.54,331.23,571.89,Scheduled,Scheduled,ACH
2017-09-30,2017-09-30,,,571.89,341.77,6.67,335.10,236.79,Scheduled,Scheduled,ACH
2017-10-31,2017-10-31,,,236.79,239.55,2.76,236.79,0.00,Scheduled,Scheduled,ACH
